%YAML 1.1
%TAG !u! tag:unity3d.com,2011:
--- !u!29 &1
OcclusionCullingSettings:
  m_ObjectHideFlags: 0
  serializedVersion: 2
  m_OcclusionBakeSettings:
    smallestOccluder: 5
    smallestHole: 0.25
    backfaceThreshold: 100
  m_SceneGUID: 00000000000000000000000000000000
  m_OcclusionCullingData: {fileID: 0}
--- !u!104 &2
RenderSettings:
  m_ObjectHideFlags: 0
  serializedVersion: 8
  m_Fog: 0
  m_FogColor: {r: 0.41911763, g: 0.797954, b: 1, a: 1}
  m_FogMode: 1
  m_FogDensity: 0.001
  m_LinearFogStart: 1024
  m_LinearFogEnd: 1200
  m_AmbientSkyColor: {r: 0.1, g: 0.1, b: 0.1, a: 1}
  m_AmbientEquatorColor: {r: 0.875, g: 0.9473684, b: 1, a: 1}
  m_AmbientGroundColor: {r: 0.29411763, g: 0.21049601, b: 0.0432526, a: 1}
  m_AmbientIntensity: 1
  m_AmbientMode: 4
  m_SubtractiveShadowColor: {r: 0.42, g: 0.478, b: 0.627, a: 1}
  m_SkyboxMaterial: {fileID: 2100000, guid: 71f14a2d79f732f4d9893ef1b911f4ff, type: 2}
  m_HaloStrength: 0.5
  m_FlareStrength: 1
  m_FlareFadeSpeed: 3
  m_HaloTexture: {fileID: 0}
  m_SpotCookie: {fileID: 10001, guid: 0000000000000000e000000000000000, type: 0}
  m_DefaultReflectionMode: 0
  m_DefaultReflectionResolution: 128
  m_ReflectionBounces: 1
  m_ReflectionIntensity: 1
  m_CustomReflection: {fileID: 0}
  m_Sun: {fileID: 1339632114}
  m_IndirectSpecularColor: {r: 0.730227, g: 0.78897583, b: 0.8498696, a: 1}
--- !u!157 &3
LightmapSettings:
  m_ObjectHideFlags: 0
  serializedVersion: 11
  m_GIWorkflowMode: 0
  m_GISettings:
    serializedVersion: 2
    m_BounceScale: 1
    m_IndirectOutputScale: 1
    m_AlbedoBoost: 1
    m_TemporalCoherenceThreshold: 1
    m_EnvironmentLightingMode: 0
    m_EnableBakedLightmaps: 0
    m_EnableRealtimeLightmaps: 0
  m_LightmapEditorSettings:
    serializedVersion: 9
    m_Resolution: 2
    m_BakeResolution: 40
    m_TextureWidth: 1024
    m_TextureHeight: 1024
    m_AO: 0
    m_AOMaxDistance: 1
    m_CompAOExponent: 1
    m_CompAOExponentDirect: 0
    m_Padding: 2
    m_LightmapParameters: {fileID: 0}
    m_LightmapsBakeMode: 1
    m_TextureCompression: 1
    m_FinalGather: 0
    m_FinalGatherFiltering: 1
    m_FinalGatherRayCount: 256
    m_ReflectionCompression: 2
    m_MixedBakeMode: 1
    m_BakeBackend: 0
    m_PVRSampling: 1
    m_PVRDirectSampleCount: 32
    m_PVRSampleCount: 500
    m_PVRBounces: 2
    m_PVRFilterTypeDirect: 0
    m_PVRFilterTypeIndirect: 0
    m_PVRFilterTypeAO: 0
    m_PVRFilteringMode: 0
    m_PVRCulling: 1
    m_PVRFilteringGaussRadiusDirect: 1
    m_PVRFilteringGaussRadiusIndirect: 5
    m_PVRFilteringGaussRadiusAO: 2
    m_PVRFilteringAtrousPositionSigmaDirect: 0.5
    m_PVRFilteringAtrousPositionSigmaIndirect: 2
    m_PVRFilteringAtrousPositionSigmaAO: 1
    m_ShowResolutionOverlay: 1
  m_LightingDataAsset: {fileID: 0}
  m_UseShadowmask: 0
--- !u!196 &4
NavMeshSettings:
  serializedVersion: 2
  m_ObjectHideFlags: 0
  m_BuildSettings:
    serializedVersion: 2
    agentTypeID: 0
    agentRadius: 0.5
    agentHeight: 2
    agentSlope: 45
    agentClimb: 0.4
    ledgeDropHeight: 0
    maxJumpAcrossDistance: 0
    minRegionArea: 2
    manualCellSize: 0
    cellSize: 0.16666667
    manualTileSize: 0
    tileSize: 256
    accuratePlacement: 0
    debug:
      m_Flags: 0
  m_NavMeshData: {fileID: 0}
--- !u!1001 &171135189
Prefab:
  m_ObjectHideFlags: 0
  serializedVersion: 2
  m_Modification:
    m_TransformParent: {fileID: 0}
    m_Modifications:
    - target: {fileID: 4293653019668252, guid: f270c934e9b240943b6e3e347940309f, type: 2}
      propertyPath: m_LocalPosition.x
      value: -42.196106
      objectReference: {fileID: 0}
    - target: {fileID: 4293653019668252, guid: f270c934e9b240943b6e3e347940309f, type: 2}
      propertyPath: m_LocalPosition.y
      value: 21.845816
      objectReference: {fileID: 0}
    - target: {fileID: 4293653019668252, guid: f270c934e9b240943b6e3e347940309f, type: 2}
      propertyPath: m_LocalPosition.z
      value: -27.14972
      objectReference: {fileID: 0}
    - target: {fileID: 4293653019668252, guid: f270c934e9b240943b6e3e347940309f, type: 2}
      propertyPath: m_LocalRotation.x
      value: -0
      objectReference: {fileID: 0}
    - target: {fileID: 4293653019668252, guid: f270c934e9b240943b6e3e347940309f, type: 2}
      propertyPath: m_LocalRotation.y
      value: -0.044254877
      objectReference: {fileID: 0}
    - target: {fileID: 4293653019668252, guid: f270c934e9b240943b6e3e347940309f, type: 2}
      propertyPath: m_LocalRotation.z
      value: -0
      objectReference: {fileID: 0}
    - target: {fileID: 4293653019668252, guid: f270c934e9b240943b6e3e347940309f, type: 2}
      propertyPath: m_LocalRotation.w
      value: 0.99902034
      objectReference: {fileID: 0}
    - target: {fileID: 4293653019668252, guid: f270c934e9b240943b6e3e347940309f, type: 2}
      propertyPath: m_RootOrder
      value: 4
      objectReference: {fileID: 0}
    - target: {fileID: 1212027018967158, guid: f270c934e9b240943b6e3e347940309f, type: 2}
      propertyPath: m_Name
      value: FemaleHorse (3)
      objectReference: {fileID: 0}
    m_RemovedComponents: []
  m_ParentPrefab: {fileID: 100100000, guid: f270c934e9b240943b6e3e347940309f, type: 2}
  m_IsPrefabParent: 0
--- !u!1001 &207480450
Prefab:
  m_ObjectHideFlags: 0
  serializedVersion: 2
  m_Modification:
    m_TransformParent: {fileID: 0}
    m_Modifications:
    - target: {fileID: 4619370800856978, guid: 9f46fa46fc38d774391cc2326b5419ef, type: 2}
      propertyPath: m_LocalPosition.x
      value: -36.38
      objectReference: {fileID: 0}
    - target: {fileID: 4619370800856978, guid: 9f46fa46fc38d774391cc2326b5419ef, type: 2}
      propertyPath: m_LocalPosition.y
      value: 21.85
      objectReference: {fileID: 0}
    - target: {fileID: 4619370800856978, guid: 9f46fa46fc38d774391cc2326b5419ef, type: 2}
      propertyPath: m_LocalPosition.z
      value: -37.96
      objectReference: {fileID: 0}
    - target: {fileID: 4619370800856978, guid: 9f46fa46fc38d774391cc2326b5419ef, type: 2}
      propertyPath: m_LocalRotation.x
      value: -0
      objectReference: {fileID: 0}
    - target: {fileID: 4619370800856978, guid: 9f46fa46fc38d774391cc2326b5419ef, type: 2}
      propertyPath: m_LocalRotation.y
      value: 0.41236916
      objectReference: {fileID: 0}
    - target: {fileID: 4619370800856978, guid: 9f46fa46fc38d774391cc2326b5419ef, type: 2}
      propertyPath: m_LocalRotation.z
      value: -0
      objectReference: {fileID: 0}
    - target: {fileID: 4619370800856978, guid: 9f46fa46fc38d774391cc2326b5419ef, type: 2}
      propertyPath: m_LocalRotation.w
      value: 0.9110169
      objectReference: {fileID: 0}
    - target: {fileID: 4619370800856978, guid: 9f46fa46fc38d774391cc2326b5419ef, type: 2}
      propertyPath: m_RootOrder
      value: 16
      objectReference: {fileID: 0}
    m_RemovedComponents: []
  m_ParentPrefab: {fileID: 100100000, guid: 9f46fa46fc38d774391cc2326b5419ef, type: 2}
  m_IsPrefabParent: 0
--- !u!1001 &301348617
Prefab:
  m_ObjectHideFlags: 0
  serializedVersion: 2
  m_Modification:
    m_TransformParent: {fileID: 0}
    m_Modifications:
    - target: {fileID: 4000012415114400, guid: ce53fdec99173b14ebf4964995fb3182, type: 2}
      propertyPath: m_LocalPosition.x
      value: -70.10001
      objectReference: {fileID: 0}
    - target: {fileID: 4000012415114400, guid: ce53fdec99173b14ebf4964995fb3182, type: 2}
      propertyPath: m_LocalPosition.y
      value: 22.36
      objectReference: {fileID: 0}
    - target: {fileID: 4000012415114400, guid: ce53fdec99173b14ebf4964995fb3182, type: 2}
      propertyPath: m_LocalPosition.z
      value: -0.00010842209
      objectReference: {fileID: 0}
    - target: {fileID: 4000012415114400, guid: ce53fdec99173b14ebf4964995fb3182, type: 2}
      propertyPath: m_LocalRotation.x
      value: -0
      objectReference: {fileID: 0}
    - target: {fileID: 4000012415114400, guid: ce53fdec99173b14ebf4964995fb3182, type: 2}
      propertyPath: m_LocalRotation.y
      value: -0.7071074
      objectReference: {fileID: 0}
    - target: {fileID: 4000012415114400, guid: ce53fdec99173b14ebf4964995fb3182, type: 2}
      propertyPath: m_LocalRotation.z
      value: -0
      objectReference: {fileID: 0}
    - target: {fileID: 4000012415114400, guid: ce53fdec99173b14ebf4964995fb3182, type: 2}
      propertyPath: m_LocalRotation.w
      value: 0.7071062
      objectReference: {fileID: 0}
    - target: {fileID: 4000012415114400, guid: ce53fdec99173b14ebf4964995fb3182, type: 2}
      propertyPath: m_RootOrder
      value: 13
      objectReference: {fileID: 0}
    - target: {fileID: 1000012032509834, guid: ce53fdec99173b14ebf4964995fb3182, type: 2}
      propertyPath: m_Name
      value: Fence-Segment (2)
      objectReference: {fileID: 0}
    - target: {fileID: 4000012415114400, guid: ce53fdec99173b14ebf4964995fb3182, type: 2}
      propertyPath: m_LocalEulerAnglesHint.y
      value: -90.00001
      objectReference: {fileID: 0}
    m_RemovedComponents: []
  m_ParentPrefab: {fileID: 100100000, guid: ce53fdec99173b14ebf4964995fb3182, type: 2}
  m_IsPrefabParent: 0
--- !u!1001 &392504783
Prefab:
  m_ObjectHideFlags: 0
  serializedVersion: 2
  m_Modification:
    m_TransformParent: {fileID: 0}
    m_Modifications:
    - target: {fileID: 4648244718905368, guid: b4c9f5a878c1a2140bb83face805107f, type: 2}
      propertyPath: m_LocalPosition.x
      value: 10.360107
      objectReference: {fileID: 0}
    - target: {fileID: 4648244718905368, guid: b4c9f5a878c1a2140bb83face805107f, type: 2}
      propertyPath: m_LocalPosition.y
      value: 21.845816
      objectReference: {fileID: 0}
    - target: {fileID: 4648244718905368, guid: b4c9f5a878c1a2140bb83face805107f, type: 2}
      propertyPath: m_LocalPosition.z
      value: -44.753723
      objectReference: {fileID: 0}
    - target: {fileID: 4648244718905368, guid: b4c9f5a878c1a2140bb83face805107f, type: 2}
      propertyPath: m_LocalRotation.x
      value: -0
      objectReference: {fileID: 0}
    - target: {fileID: 4648244718905368, guid: b4c9f5a878c1a2140bb83face805107f, type: 2}
      propertyPath: m_LocalRotation.y
      value: -0.98977786
      objectReference: {fileID: 0}
    - target: {fileID: 4648244718905368, guid: b4c9f5a878c1a2140bb83face805107f, type: 2}
      propertyPath: m_LocalRotation.z
      value: -0
      objectReference: {fileID: 0}
    - target: {fileID: 4648244718905368, guid: b4c9f5a878c1a2140bb83face805107f, type: 2}
      propertyPath: m_LocalRotation.w
      value: 0.14261757
      objectReference: {fileID: 0}
    - target: {fileID: 4648244718905368, guid: b4c9f5a878c1a2140bb83face805107f, type: 2}
      propertyPath: m_RootOrder
      value: 6
      objectReference: {fileID: 0}
    - target: {fileID: 1362921573827326, guid: b4c9f5a878c1a2140bb83face805107f, type: 2}
      propertyPath: m_Name
      value: MaleHorse (5)
      objectReference: {fileID: 0}
    - target: {fileID: 4648244718905368, guid: b4c9f5a878c1a2140bb83face805107f, type: 2}
      propertyPath: m_LocalEulerAnglesHint.y
      value: -163.60101
      objectReference: {fileID: 0}
    m_RemovedComponents: []
  m_ParentPrefab: {fileID: 100100000, guid: b4c9f5a878c1a2140bb83face805107f, type: 2}
  m_IsPrefabParent: 0
--- !u!1001 &468693360
Prefab:
  m_ObjectHideFlags: 0
  serializedVersion: 2
  m_Modification:
    m_TransformParent: {fileID: 0}
    m_Modifications:
    - target: {fileID: 4000012415114400, guid: ce53fdec99173b14ebf4964995fb3182, type: 2}
      propertyPath: m_LocalPosition.x
      value: -0.1
      objectReference: {fileID: 0}
    - target: {fileID: 4000012415114400, guid: ce53fdec99173b14ebf4964995fb3182, type: 2}
      propertyPath: m_LocalPosition.y
      value: 22.36
      objectReference: {fileID: 0}
    - target: {fileID: 4000012415114400, guid: ce53fdec99173b14ebf4964995fb3182, type: 2}
      propertyPath: m_LocalPosition.z
      value: -70
      objectReference: {fileID: 0}
    - target: {fileID: 4000012415114400, guid: ce53fdec99173b14ebf4964995fb3182, type: 2}
      propertyPath: m_LocalRotation.x
      value: 0
      objectReference: {fileID: 0}
    - target: {fileID: 4000012415114400, guid: ce53fdec99173b14ebf4964995fb3182, type: 2}
      propertyPath: m_LocalRotation.y
      value: 0
      objectReference: {fileID: 0}
    - target: {fileID: 4000012415114400, guid: ce53fdec99173b14ebf4964995fb3182, type: 2}
      propertyPath: m_LocalRotation.z
      value: 0
      objectReference: {fileID: 0}
    - target: {fileID: 4000012415114400, guid: ce53fdec99173b14ebf4964995fb3182, type: 2}
      propertyPath: m_LocalRotation.w
      value: 1
      objectReference: {fileID: 0}
    - target: {fileID: 4000012415114400, guid: ce53fdec99173b14ebf4964995fb3182, type: 2}
      propertyPath: m_RootOrder
      value: 11
      objectReference: {fileID: 0}
    m_RemovedComponents: []
  m_ParentPrefab: {fileID: 100100000, guid: ce53fdec99173b14ebf4964995fb3182, type: 2}
  m_IsPrefabParent: 0
--- !u!1001 &486861756
Prefab:
  m_ObjectHideFlags: 0
  serializedVersion: 2
  m_Modification:
    m_TransformParent: {fileID: 0}
    m_Modifications:
    - target: {fileID: 4000012415114400, guid: ce53fdec99173b14ebf4964995fb3182, type: 2}
      propertyPath: m_LocalPosition.x
      value: -0.1
      objectReference: {fileID: 0}
    - target: {fileID: 4000012415114400, guid: ce53fdec99173b14ebf4964995fb3182, type: 2}
      propertyPath: m_LocalPosition.y
      value: 22.36
      objectReference: {fileID: 0}
    - target: {fileID: 4000012415114400, guid: ce53fdec99173b14ebf4964995fb3182, type: 2}
      propertyPath: m_LocalPosition.z
      value: 70
      objectReference: {fileID: 0}
    - target: {fileID: 4000012415114400, guid: ce53fdec99173b14ebf4964995fb3182, type: 2}
      propertyPath: m_LocalRotation.x
      value: 0
      objectReference: {fileID: 0}
    - target: {fileID: 4000012415114400, guid: ce53fdec99173b14ebf4964995fb3182, type: 2}
      propertyPath: m_LocalRotation.y
      value: 0
      objectReference: {fileID: 0}
    - target: {fileID: 4000012415114400, guid: ce53fdec99173b14ebf4964995fb3182, type: 2}
      propertyPath: m_LocalRotation.z
      value: 0
      objectReference: {fileID: 0}
    - target: {fileID: 4000012415114400, guid: ce53fdec99173b14ebf4964995fb3182, type: 2}
      propertyPath: m_LocalRotation.w
      value: 1
      objectReference: {fileID: 0}
    - target: {fileID: 4000012415114400, guid: ce53fdec99173b14ebf4964995fb3182, type: 2}
      propertyPath: m_RootOrder
      value: 12
      objectReference: {fileID: 0}
    - target: {fileID: 1000012032509834, guid: ce53fdec99173b14ebf4964995fb3182, type: 2}
      propertyPath: m_Name
      value: Fence-Segment (1)
      objectReference: {fileID: 0}
    m_RemovedComponents: []
  m_ParentPrefab: {fileID: 100100000, guid: ce53fdec99173b14ebf4964995fb3182, type: 2}
  m_IsPrefabParent: 0
--- !u!1001 &502987587
Prefab:
  m_ObjectHideFlags: 0
  serializedVersion: 2
  m_Modification:
    m_TransformParent: {fileID: 0}
    m_Modifications:
    - target: {fileID: 4638001539505520, guid: 4caacede2a5717140abaee2d407851f0, type: 2}
      propertyPath: m_LocalPosition.x
      value: -1088
      objectReference: {fileID: 0}
    - target: {fileID: 4638001539505520, guid: 4caacede2a5717140abaee2d407851f0, type: 2}
      propertyPath: m_LocalPosition.y
      value: 30.82
      objectReference: {fileID: 0}
    - target: {fileID: 4638001539505520, guid: 4caacede2a5717140abaee2d407851f0, type: 2}
      propertyPath: m_LocalPosition.z
      value: 782
      objectReference: {fileID: 0}
    - target: {fileID: 4638001539505520, guid: 4caacede2a5717140abaee2d407851f0, type: 2}
      propertyPath: m_LocalRotation.x
      value: 0.40821788
      objectReference: {fileID: 0}
    - target: {fileID: 4638001539505520, guid: 4caacede2a5717140abaee2d407851f0, type: 2}
      propertyPath: m_LocalRotation.y
      value: -0.23456968
      objectReference: {fileID: 0}
    - target: {fileID: 4638001539505520, guid: 4caacede2a5717140abaee2d407851f0, type: 2}
      propertyPath: m_LocalRotation.z
      value: 0.10938163
      objectReference: {fileID: 0}
    - target: {fileID: 4638001539505520, guid: 4caacede2a5717140abaee2d407851f0, type: 2}
      propertyPath: m_LocalRotation.w
      value: 0.8754261
      objectReference: {fileID: 0}
    - target: {fileID: 4638001539505520, guid: 4caacede2a5717140abaee2d407851f0, type: 2}
      propertyPath: m_RootOrder
      value: 0
      objectReference: {fileID: 0}
    m_RemovedComponents: []
  m_ParentPrefab: {fileID: 100100000, guid: 4caacede2a5717140abaee2d407851f0, type: 2}
  m_IsPrefabParent: 0
--- !u!1001 &714925534
Prefab:
  m_ObjectHideFlags: 0
  serializedVersion: 2
  m_Modification:
    m_TransformParent: {fileID: 0}
    m_Modifications:
    - target: {fileID: 4293653019668252, guid: f270c934e9b240943b6e3e347940309f, type: 2}
      propertyPath: m_LocalPosition.x
      value: -17.282715
      objectReference: {fileID: 0}
    - target: {fileID: 4293653019668252, guid: f270c934e9b240943b6e3e347940309f, type: 2}
      propertyPath: m_LocalPosition.y
      value: 21.845816
      objectReference: {fileID: 0}
    - target: {fileID: 4293653019668252, guid: f270c934e9b240943b6e3e347940309f, type: 2}
      propertyPath: m_LocalPosition.z
      value: 0.16186523
      objectReference: {fileID: 0}
    - target: {fileID: 4293653019668252, guid: f270c934e9b240943b6e3e347940309f, type: 2}
      propertyPath: m_LocalRotation.x
      value: -0
      objectReference: {fileID: 0}
    - target: {fileID: 4293653019668252, guid: f270c934e9b240943b6e3e347940309f, type: 2}
      propertyPath: m_LocalRotation.y
      value: 0.3702862
      objectReference: {fileID: 0}
    - target: {fileID: 4293653019668252, guid: f270c934e9b240943b6e3e347940309f, type: 2}
      propertyPath: m_LocalRotation.z
      value: -0
      objectReference: {fileID: 0}
    - target: {fileID: 4293653019668252, guid: f270c934e9b240943b6e3e347940309f, type: 2}
      propertyPath: m_LocalRotation.w
      value: 0.92891777
      objectReference: {fileID: 0}
    - target: {fileID: 4293653019668252, guid: f270c934e9b240943b6e3e347940309f, type: 2}
      propertyPath: m_RootOrder
      value: 3
      objectReference: {fileID: 0}
    - target: {fileID: 1212027018967158, guid: f270c934e9b240943b6e3e347940309f, type: 2}
      propertyPath: m_Name
      value: FemaleHorse (4)
      objectReference: {fileID: 0}
    - target: {fileID: 4293653019668252, guid: f270c934e9b240943b6e3e347940309f, type: 2}
      propertyPath: m_LocalEulerAnglesHint.y
      value: 43.467003
      objectReference: {fileID: 0}
    m_RemovedComponents: []
  m_ParentPrefab: {fileID: 100100000, guid: f270c934e9b240943b6e3e347940309f, type: 2}
  m_IsPrefabParent: 0
--- !u!1001 &893572769
Prefab:
  m_ObjectHideFlags: 0
  serializedVersion: 2
  m_Modification:
    m_TransformParent: {fileID: 0}
    m_Modifications:
    - target: {fileID: 4648244718905368, guid: b4c9f5a878c1a2140bb83face805107f, type: 2}
      propertyPath: m_LocalPosition.x
      value: -32.69
      objectReference: {fileID: 0}
    - target: {fileID: 4648244718905368, guid: b4c9f5a878c1a2140bb83face805107f, type: 2}
      propertyPath: m_LocalPosition.y
      value: 21.85
      objectReference: {fileID: 0}
    - target: {fileID: 4648244718905368, guid: b4c9f5a878c1a2140bb83face805107f, type: 2}
      propertyPath: m_LocalPosition.z
      value: -36.26
      objectReference: {fileID: 0}
    - target: {fileID: 4648244718905368, guid: b4c9f5a878c1a2140bb83face805107f, type: 2}
      propertyPath: m_LocalRotation.x
      value: -0
      objectReference: {fileID: 0}
    - target: {fileID: 4648244718905368, guid: b4c9f5a878c1a2140bb83face805107f, type: 2}
      propertyPath: m_LocalRotation.y
      value: -0.51825416
      objectReference: {fileID: 0}
    - target: {fileID: 4648244718905368, guid: b4c9f5a878c1a2140bb83face805107f, type: 2}
      propertyPath: m_LocalRotation.z
      value: -0
      objectReference: {fileID: 0}
    - target: {fileID: 4648244718905368, guid: b4c9f5a878c1a2140bb83face805107f, type: 2}
      propertyPath: m_LocalRotation.w
      value: 0.85522664
      objectReference: {fileID: 0}
    - target: {fileID: 4648244718905368, guid: b4c9f5a878c1a2140bb83face805107f, type: 2}
      propertyPath: m_RootOrder
      value: 10
      objectReference: {fileID: 0}
    m_RemovedComponents: []
  m_ParentPrefab: {fileID: 100100000, guid: b4c9f5a878c1a2140bb83face805107f, type: 2}
  m_IsPrefabParent: 0
--- !u!1001 &1086356811
Prefab:
  m_ObjectHideFlags: 0
  serializedVersion: 2
  m_Modification:
    m_TransformParent: {fileID: 0}
    m_Modifications:
    - target: {fileID: 4648244718905368, guid: b4c9f5a878c1a2140bb83face805107f, type: 2}
      propertyPath: m_LocalPosition.x
      value: -12.807007
      objectReference: {fileID: 0}
    - target: {fileID: 4648244718905368, guid: b4c9f5a878c1a2140bb83face805107f, type: 2}
      propertyPath: m_LocalPosition.y
      value: 21.845816
      objectReference: {fileID: 0}
    - target: {fileID: 4648244718905368, guid: b4c9f5a878c1a2140bb83face805107f, type: 2}
      propertyPath: m_LocalPosition.z
      value: -6.3635864
      objectReference: {fileID: 0}
    - target: {fileID: 4648244718905368, guid: b4c9f5a878c1a2140bb83face805107f, type: 2}
      propertyPath: m_LocalRotation.x
      value: -0
      objectReference: {fileID: 0}
    - target: {fileID: 4648244718905368, guid: b4c9f5a878c1a2140bb83face805107f, type: 2}
      propertyPath: m_LocalRotation.y
      value: 0.5674281
      objectReference: {fileID: 0}
    - target: {fileID: 4648244718905368, guid: b4c9f5a878c1a2140bb83face805107f, type: 2}
      propertyPath: m_LocalRotation.z
      value: -0
      objectReference: {fileID: 0}
    - target: {fileID: 4648244718905368, guid: b4c9f5a878c1a2140bb83face805107f, type: 2}
      propertyPath: m_LocalRotation.w
      value: 0.8234229
      objectReference: {fileID: 0}
    - target: {fileID: 4648244718905368, guid: b4c9f5a878c1a2140bb83face805107f, type: 2}
      propertyPath: m_RootOrder
      value: 7
      objectReference: {fileID: 0}
    - target: {fileID: 1362921573827326, guid: b4c9f5a878c1a2140bb83face805107f, type: 2}
      propertyPath: m_Name
      value: MaleHorse (3)
      objectReference: {fileID: 0}
    - target: {fileID: 4648244718905368, guid: b4c9f5a878c1a2140bb83face805107f, type: 2}
      propertyPath: m_LocalEulerAnglesHint.y
      value: 69.142006
      objectReference: {fileID: 0}
    m_RemovedComponents: []
  m_ParentPrefab: {fileID: 100100000, guid: b4c9f5a878c1a2140bb83face805107f, type: 2}
  m_IsPrefabParent: 0
--- !u!1001 &1117407994
Prefab:
  m_ObjectHideFlags: 0
  serializedVersion: 2
  m_Modification:
    m_TransformParent: {fileID: 0}
    m_Modifications:
    - target: {fileID: 4293653019668252, guid: f270c934e9b240943b6e3e347940309f, type: 2}
      propertyPath: m_LocalPosition.x
      value: -41.95
      objectReference: {fileID: 0}
    - target: {fileID: 4293653019668252, guid: f270c934e9b240943b6e3e347940309f, type: 2}
      propertyPath: m_LocalPosition.y
      value: 21.845816
      objectReference: {fileID: 0}
    - target: {fileID: 4293653019668252, guid: f270c934e9b240943b6e3e347940309f, type: 2}
      propertyPath: m_LocalPosition.z
      value: -2.32
      objectReference: {fileID: 0}
    - target: {fileID: 4293653019668252, guid: f270c934e9b240943b6e3e347940309f, type: 2}
      propertyPath: m_LocalRotation.x
      value: -0
      objectReference: {fileID: 0}
    - target: {fileID: 4293653019668252, guid: f270c934e9b240943b6e3e347940309f, type: 2}
      propertyPath: m_LocalRotation.y
      value: -0.044254877
      objectReference: {fileID: 0}
    - target: {fileID: 4293653019668252, guid: f270c934e9b240943b6e3e347940309f, type: 2}
      propertyPath: m_LocalRotation.z
      value: -0
      objectReference: {fileID: 0}
    - target: {fileID: 4293653019668252, guid: f270c934e9b240943b6e3e347940309f, type: 2}
      propertyPath: m_LocalRotation.w
      value: 0.99902034
      objectReference: {fileID: 0}
    - target: {fileID: 4293653019668252, guid: f270c934e9b240943b6e3e347940309f, type: 2}
      propertyPath: m_RootOrder
      value: 9
      objectReference: {fileID: 0}
    m_RemovedComponents: []
  m_ParentPrefab: {fileID: 100100000, guid: f270c934e9b240943b6e3e347940309f, type: 2}
  m_IsPrefabParent: 0
--- !u!1001 &1172392487
Prefab:
  m_ObjectHideFlags: 0
  serializedVersion: 2
  m_Modification:
    m_TransformParent: {fileID: 0}
    m_Modifications:
    - target: {fileID: 4293653019668252, guid: f270c934e9b240943b6e3e347940309f, type: 2}
      propertyPath: m_LocalPosition.x
      value: -30.89209
      objectReference: {fileID: 0}
    - target: {fileID: 4293653019668252, guid: f270c934e9b240943b6e3e347940309f, type: 2}
      propertyPath: m_LocalPosition.y
      value: 21.845814
      objectReference: {fileID: 0}
    - target: {fileID: 4293653019668252, guid: f270c934e9b240943b6e3e347940309f, type: 2}
      propertyPath: m_LocalPosition.z
      value: -15.959656
      objectReference: {fileID: 0}
    - target: {fileID: 4293653019668252, guid: f270c934e9b240943b6e3e347940309f, type: 2}
      propertyPath: m_LocalRotation.x
      value: -0
      objectReference: {fileID: 0}
    - target: {fileID: 4293653019668252, guid: f270c934e9b240943b6e3e347940309f, type: 2}
      propertyPath: m_LocalRotation.y
      value: 0.87747324
      objectReference: {fileID: 0}
    - target: {fileID: 4293653019668252, guid: f270c934e9b240943b6e3e347940309f, type: 2}
      propertyPath: m_LocalRotation.z
      value: -0
      objectReference: {fileID: 0}
    - target: {fileID: 4293653019668252, guid: f270c934e9b240943b6e3e347940309f, type: 2}
      propertyPath: m_LocalRotation.w
      value: 0.47962576
      objectReference: {fileID: 0}
    - target: {fileID: 4293653019668252, guid: f270c934e9b240943b6e3e347940309f, type: 2}
      propertyPath: m_RootOrder
      value: 2
      objectReference: {fileID: 0}
    - target: {fileID: 1212027018967158, guid: f270c934e9b240943b6e3e347940309f, type: 2}
      propertyPath: m_Name
      value: FemaleHorse (2)
      objectReference: {fileID: 0}
    - target: {fileID: 4293653019668252, guid: f270c934e9b240943b6e3e347940309f, type: 2}
      propertyPath: m_LocalEulerAnglesHint.y
      value: 122.67801
      objectReference: {fileID: 0}
    m_RemovedComponents: []
  m_ParentPrefab: {fileID: 100100000, guid: f270c934e9b240943b6e3e347940309f, type: 2}
  m_IsPrefabParent: 0
--- !u!1001 &1333002925
Prefab:
  m_ObjectHideFlags: 0
  serializedVersion: 2
  m_Modification:
    m_TransformParent: {fileID: 0}
    m_Modifications:
    - target: {fileID: 4648244718905368, guid: b4c9f5a878c1a2140bb83face805107f, type: 2}
      propertyPath: m_LocalPosition.x
      value: -26.602783
      objectReference: {fileID: 0}
    - target: {fileID: 4648244718905368, guid: b4c9f5a878c1a2140bb83face805107f, type: 2}
      propertyPath: m_LocalPosition.y
      value: 21.845816
      objectReference: {fileID: 0}
    - target: {fileID: 4648244718905368, guid: b4c9f5a878c1a2140bb83face805107f, type: 2}
      propertyPath: m_LocalPosition.z
      value: -2.9074707
      objectReference: {fileID: 0}
    - target: {fileID: 4648244718905368, guid: b4c9f5a878c1a2140bb83face805107f, type: 2}
      propertyPath: m_LocalRotation.x
      value: -0
      objectReference: {fileID: 0}
    - target: {fileID: 4648244718905368, guid: b4c9f5a878c1a2140bb83face805107f, type: 2}
      propertyPath: m_LocalRotation.y
      value: -0.61816454
      objectReference: {fileID: 0}
    - target: {fileID: 4648244718905368, guid: b4c9f5a878c1a2140bb83face805107f, type: 2}
      propertyPath: m_LocalRotation.z
      value: -0
      objectReference: {fileID: 0}
    - target: {fileID: 4648244718905368, guid: b4c9f5a878c1a2140bb83face805107f, type: 2}
      propertyPath: m_LocalRotation.w
      value: 0.7860487
      objectReference: {fileID: 0}
    - target: {fileID: 4648244718905368, guid: b4c9f5a878c1a2140bb83face805107f, type: 2}
      propertyPath: m_RootOrder
      value: 8
      objectReference: {fileID: 0}
    - target: {fileID: 1362921573827326, guid: b4c9f5a878c1a2140bb83face805107f, type: 2}
      propertyPath: m_Name
      value: MaleHorse (2)
      objectReference: {fileID: 0}
    - target: {fileID: 4648244718905368, guid: b4c9f5a878c1a2140bb83face805107f, type: 2}
      propertyPath: m_LocalEulerAnglesHint.y
      value: -76.364006
      objectReference: {fileID: 0}
    m_RemovedComponents: []
  m_ParentPrefab: {fileID: 100100000, guid: b4c9f5a878c1a2140bb83face805107f, type: 2}
  m_IsPrefabParent: 0
--- !u!108 &1339632114 stripped
Light:
  m_PrefabParentObject: {fileID: 108726427853614924, guid: 4caacede2a5717140abaee2d407851f0,
    type: 2}
  m_PrefabInternal: {fileID: 502987587}
--- !u!1001 &1569867624
Prefab:
  m_ObjectHideFlags: 0
  serializedVersion: 2
  m_Modification:
    m_TransformParent: {fileID: 0}
    m_Modifications:
    - target: {fileID: 4293653019668252, guid: f270c934e9b240943b6e3e347940309f, type: 2}
      propertyPath: m_LocalPosition.x
      value: -1.3466187
      objectReference: {fileID: 0}
    - target: {fileID: 4293653019668252, guid: f270c934e9b240943b6e3e347940309f, type: 2}
      propertyPath: m_LocalPosition.y
      value: 21.845816
      objectReference: {fileID: 0}
    - target: {fileID: 4293653019668252, guid: f270c934e9b240943b6e3e347940309f, type: 2}
      propertyPath: m_LocalPosition.z
      value: -13.855896
      objectReference: {fileID: 0}
    - target: {fileID: 4293653019668252, guid: f270c934e9b240943b6e3e347940309f, type: 2}
      propertyPath: m_LocalRotation.x
      value: -0
      objectReference: {fileID: 0}
    - target: {fileID: 4293653019668252, guid: f270c934e9b240943b6e3e347940309f, type: 2}
      propertyPath: m_LocalRotation.y
      value: 0.5048821
      objectReference: {fileID: 0}
    - target: {fileID: 4293653019668252, guid: f270c934e9b240943b6e3e347940309f, type: 2}
      propertyPath: m_LocalRotation.z
      value: -0
      objectReference: {fileID: 0}
    - target: {fileID: 4293653019668252, guid: f270c934e9b240943b6e3e347940309f, type: 2}
      propertyPath: m_LocalRotation.w
      value: 0.8631884
      objectReference: {fileID: 0}
    - target: {fileID: 4293653019668252, guid: f270c934e9b240943b6e3e347940309f, type: 2}
      propertyPath: m_RootOrder
      value: 1
      objectReference: {fileID: 0}
    - target: {fileID: 1212027018967158, guid: f270c934e9b240943b6e3e347940309f, type: 2}
      propertyPath: m_Name
      value: FemaleHorse (1)
      objectReference: {fileID: 0}
    - target: {fileID: 4293653019668252, guid: f270c934e9b240943b6e3e347940309f, type: 2}
      propertyPath: m_LocalEulerAnglesHint.y
      value: 60.647003
      objectReference: {fileID: 0}
    - target: {fileID: 0}
      propertyPath: m_Materials.Array.data[0]
      value: 
      objectReference: {fileID: 2100000, guid: c7df670822d917549b28e99f71566852, type: 2}
    - target: {fileID: 137814682052447842, guid: f270c934e9b240943b6e3e347940309f,
        type: 2}
      propertyPath: m_Materials.Array.data[0]
      value: 
      objectReference: {fileID: 2100000, guid: c7df670822d917549b28e99f71566852, type: 2}
    m_RemovedComponents: []
  m_ParentPrefab: {fileID: 100100000, guid: f270c934e9b240943b6e3e347940309f, type: 2}
  m_IsPrefabParent: 0
--- !u!1001 &1765284763
Prefab:
  m_ObjectHideFlags: 0
  serializedVersion: 2
  m_Modification:
    m_TransformParent: {fileID: 0}
    m_Modifications:
    - target: {fileID: 4000012415114400, guid: ce53fdec99173b14ebf4964995fb3182, type: 2}
      propertyPath: m_LocalPosition.x
      value: 70
      objectReference: {fileID: 0}
    - target: {fileID: 4000012415114400, guid: ce53fdec99173b14ebf4964995fb3182, type: 2}
      propertyPath: m_LocalPosition.y
      value: 22.36
      objectReference: {fileID: 0}
    - target: {fileID: 4000012415114400, guid: ce53fdec99173b14ebf4964995fb3182, type: 2}
      propertyPath: m_LocalPosition.z
      value: 0.000106038344
      objectReference: {fileID: 0}
    - target: {fileID: 4000012415114400, guid: ce53fdec99173b14ebf4964995fb3182, type: 2}
      propertyPath: m_LocalRotation.x
      value: -0
      objectReference: {fileID: 0}
    - target: {fileID: 4000012415114400, guid: ce53fdec99173b14ebf4964995fb3182, type: 2}
      propertyPath: m_LocalRotation.y
      value: -0.7071074
      objectReference: {fileID: 0}
    - target: {fileID: 4000012415114400, guid: ce53fdec99173b14ebf4964995fb3182, type: 2}
      propertyPath: m_LocalRotation.z
      value: -0
      objectReference: {fileID: 0}
    - target: {fileID: 4000012415114400, guid: ce53fdec99173b14ebf4964995fb3182, type: 2}
      propertyPath: m_LocalRotation.w
      value: 0.7071062
      objectReference: {fileID: 0}
    - target: {fileID: 4000012415114400, guid: ce53fdec99173b14ebf4964995fb3182, type: 2}
      propertyPath: m_RootOrder
      value: 14
      objectReference: {fileID: 0}
    - target: {fileID: 1000012032509834, guid: ce53fdec99173b14ebf4964995fb3182, type: 2}
      propertyPath: m_Name
      value: Fence-Segment (3)
      objectReference: {fileID: 0}
    - target: {fileID: 4000012415114400, guid: ce53fdec99173b14ebf4964995fb3182, type: 2}
      propertyPath: m_LocalEulerAnglesHint.y
      value: -90.00001
      objectReference: {fileID: 0}
    m_RemovedComponents: []
  m_ParentPrefab: {fileID: 100100000, guid: ce53fdec99173b14ebf4964995fb3182, type: 2}
  m_IsPrefabParent: 0
--- !u!1001 &1909382229
Prefab:
  m_ObjectHideFlags: 0
  serializedVersion: 2
  m_Modification:
    m_TransformParent: {fileID: 0}
    m_Modifications:
    - target: {fileID: 4342689905850884, guid: 60d4ccdfe6b9a71409fa28d6323ff421, type: 2}
      propertyPath: m_LocalPosition.x
      value: -1000
      objectReference: {fileID: 0}
    - target: {fileID: 4342689905850884, guid: 60d4ccdfe6b9a71409fa28d6323ff421, type: 2}
      propertyPath: m_LocalPosition.y
      value: 0
      objectReference: {fileID: 0}
    - target: {fileID: 4342689905850884, guid: 60d4ccdfe6b9a71409fa28d6323ff421, type: 2}
      propertyPath: m_LocalPosition.z
      value: -1000
      objectReference: {fileID: 0}
    - target: {fileID: 4342689905850884, guid: 60d4ccdfe6b9a71409fa28d6323ff421, type: 2}
      propertyPath: m_LocalRotation.x
      value: 0
      objectReference: {fileID: 0}
    - target: {fileID: 4342689905850884, guid: 60d4ccdfe6b9a71409fa28d6323ff421, type: 2}
      propertyPath: m_LocalRotation.y
      value: 0
      objectReference: {fileID: 0}
    - target: {fileID: 4342689905850884, guid: 60d4ccdfe6b9a71409fa28d6323ff421, type: 2}
      propertyPath: m_LocalRotation.z
      value: 0
      objectReference: {fileID: 0}
    - target: {fileID: 4342689905850884, guid: 60d4ccdfe6b9a71409fa28d6323ff421, type: 2}
      propertyPath: m_LocalRotation.w
      value: 1
      objectReference: {fileID: 0}
    - target: {fileID: 4342689905850884, guid: 60d4ccdfe6b9a71409fa28d6323ff421, type: 2}
      propertyPath: m_RootOrder
      value: 15
      objectReference: {fileID: 0}
    m_RemovedComponents: []
  m_ParentPrefab: {fileID: 100100000, guid: 60d4ccdfe6b9a71409fa28d6323ff421, type: 2}
  m_IsPrefabParent: 0
--- !u!1001 &2020293860
Prefab:
  m_ObjectHideFlags: 0
  serializedVersion: 2
  m_Modification:
    m_TransformParent: {fileID: 0}
    m_Modifications:
    - target: {fileID: 4648244718905368, guid: b4c9f5a878c1a2140bb83face805107f, type: 2}
      propertyPath: m_LocalPosition.x
      value: -9.343445
      objectReference: {fileID: 0}
    - target: {fileID: 4648244718905368, guid: b4c9f5a878c1a2140bb83face805107f, type: 2}
      propertyPath: m_LocalPosition.y
      value: 21.845816
      objectReference: {fileID: 0}
    - target: {fileID: 4648244718905368, guid: b4c9f5a878c1a2140bb83face805107f, type: 2}
      propertyPath: m_LocalPosition.z
      value: -37.008423
      objectReference: {fileID: 0}
    - target: {fileID: 4648244718905368, guid: b4c9f5a878c1a2140bb83face805107f, type: 2}
      propertyPath: m_LocalRotation.x
      value: -0
      objectReference: {fileID: 0}
    - target: {fileID: 4648244718905368, guid: b4c9f5a878c1a2140bb83face805107f, type: 2}
      propertyPath: m_LocalRotation.y
      value: -0.51825416
      objectReference: {fileID: 0}
    - target: {fileID: 4648244718905368, guid: b4c9f5a878c1a2140bb83face805107f, type: 2}
      propertyPath: m_LocalRotation.z
      value: -0
      objectReference: {fileID: 0}
    - target: {fileID: 4648244718905368, guid: b4c9f5a878c1a2140bb83face805107f, type: 2}
      propertyPath: m_LocalRotation.w
      value: 0.85522664
      objectReference: {fileID: 0}
    - target: {fileID: 4648244718905368, guid: b4c9f5a878c1a2140bb83face805107f, type: 2}
      propertyPath: m_RootOrder
      value: 5
      objectReference: {fileID: 0}
    - target: {fileID: 1362921573827326, guid: b4c9f5a878c1a2140bb83face805107f, type: 2}
      propertyPath: m_Name
      value: MaleHorse (6)
      objectReference: {fileID: 0}
    m_RemovedComponents: []
  m_ParentPrefab: {fileID: 100100000, guid: b4c9f5a878c1a2140bb83face805107f, type: 2}
  m_IsPrefabParent: 0
